SII TP série 2/SDS00002.csv

Vertical Units,CH1:V CH2:V,
Vertical Scale,CH1:2.00 CH2:0.20,
Vertical Offset,CH1:1.92000 CH2:-0.39600,
Horizontal Units,us,
Horizontal Scale,5000.0000000000,
Source,CH1,CH2
Second,Volt,Volt
 0.00000000000,-0.64000,0.14800
 0.00001000000,-0.72000,0.14800
 0.00002000000,-0.64000,0.14800
 0.00003000000,-0.64000,0.14800
 0.00004000000,-0.72000,0.14000
 0.00005000000,-0.88000,0.15600
 0.00006000000,-0.72000,0.14800
 0.00007000000,-0.80000,0.15600
 0.00008000000,-0.80000,0.14800
 0.00009000000,-0.88000,0.14800
 0.00010000000,-0.88000,0.14800
 0.00011000000,-0.72000,0.14000
 0.00012000000,-0.80000,0.14800
 0.00013000000,-0.80000,0.15600
 0.00014000000,-0.88000,0.14800
 0.00015000000,-0.88000,0.14800
 0.00016000000,-0.80000,0.14000
 0.00017000000,-0.88000,0.14000
 0.00018000000,-0.88000,0.14800
 0.00019000000,-0.88000,0.14800
 0.00020000000,-0.96000,0.14000
 0.00021000000,-0.88000,0.14000
 0.00022000000,-0.96000,0.14800
 0.00023000000,-0.96000,0.14800
 0.00024000000,-0.88000,0.14000
 0.00025000000,-0.96000,0.13200
 0.00026000000,-0.96000,0.14800
 0.00027000000,-0.88000,0.14000
 0.00028000000,-0.88000,0.14000
 0.00029000000,-1.04000,0.14000
 0.00030000000,-0.96000,0.14000
 0.00031000000,-0.96000,0.14800
 0.00032000000,-0.96000,0.14000
 0.00033000000,-1.04000,0.14000
 0.00034000000,-1.04000,0.14000
 0.00035000000,-1.04000,0.13200
 0.00036000000,-1.04000,0.13200
 0.00037000000,-1.04000,0.14000
 0.00038000000,-1.04000,0.10000
 0.00039000000,-1.04000,0.13200
 0.00040000000,-1.04000,0.14000
 0.00041000000,-1.04000,0.13200
 0.00042000000,-1.12000,0.13200
 0.00043000000,-1.04000,0.14000
 0.00044000000,-1.04000,0.13200
 0.00045000000,-1.04000,0.13200
 0.00046000000,-1.12000,0.14000
 0.00047000000,-1.12000,0.13200
 0.00048000000,-1.04000,0.13200
 0.00049000000,-1.12000,0.13200
 0.00050000000,-1.12000,0.13200
 0.00051000000,-1.12000,0.14000
 0.00052000000,-1.20000,0.14000
 0.00053000000,-1.20000,0.13200
 0.00054000000,-1.12000,0.13200
 0.00055000000,-1.28000,0.13200
 0.00056000000,-1.20000,0.13200
 0.00057000000,-1.12000,0.14000
 0.00058000000,-1.28000,0.13200
 0.00059000000,-1.20000,0.13200
 0.00060000000,-1.12000,0.13200
 0.00061000000,-1.20000,0.13200
 0.00062000000,-1.28000,0.13200
 0.00063000000,-1.28000,0.08400
 0.00064000000,-1.36000,0.13200
 0.00065000000,-1.28000,0.12400
 0.00066000000,-1.20000,0.12400
 0.00067000000,-1.20000,0.11600
 0.00068000000,-1.20000,0.12400
 0.00069000000,-1.28000,0.13200
 0.00070000000,-1.20000,0.11600
 0.00071000000,-1.28000,0.12400
 0.00072000000,-1.28000,0.13200
 0.00073000000,-1.20000,0.13200
 0.00074000000,-1.28000,0.11600
 0.00075000000,-1.36000,0.12400
 0.00076000000,-1.28000,0.12400
 0.00077000000,-1.28000,0.12400
 0.00078000000,-1.28000,0.12400
 0.00079000000,-1.36000,0.12400
 0.00080000000,-1.36000,0.12400
 0.00081000000,-1.28000,0.13200
 0.00082000000,-1.36000,0.12400
 0.00083000000,-1.44000,0.12400
 0.00084000000,-1.36000,0.12400
 0.00085000000,-1.44000,0.11600
 0.00086000000,-1.44000,0.12400
 0.00087000000,-1.36000,0.12400
 0.00088000000,-1.36000,0.15600
 0.00089000000,-1.44000,0.12400
 0.00090000000,-1.44000,0.12400
 0.00091000000,-1.44000,0.11600
 0.00092000000,-1.52000,0.12400
 0.00093000000,-1.44000,0.12400
 0.00094000000,-1.52000,0.11600
 0.00095000000,-1.36000,0.12400
 0.00096000000,-1.44000,0.11600
 0.00097000000,-1.44000,0.10800
 0.00098000000,-1.52000,0.12400
 0.00099000000,-1.52000,0.11600
 0.00100000000,-1.52000,0.12400
 0.00101000000,-1.44000,0.11600
 0.00102000000,-1.60000,0.11600
 0.00103000000,-1.44000,0.11600
 0.00104000000,-1.52000,0.11600
 0.00105000000,-1.52000,0.12400
 0.00106000000,-1.44000,0.10800
 0.00107000000,-1.52000,0.11600
 0.00108000000,-1.60000,0.11600
 0.00109000000,-1.68000,0.11600
 0.00110000000,-1.60000,0.11600
 0.00111000000,-1.60000,0.11600
 0.00112000000,-1.60000,0.11600
 0.00113000000,-1.68000,0.07600
 0.00114000000,-1.60000,0.12400
 0.00115000000,-1.68000,0.10000
 0.00116000000,-1.60000,0.10800
 0.00117000000,-1.60000,0.11600
 0.00118000000,-1.68000,0.10800
 0.00119000000,-1.76000,0.12400
 0.00120000000,-1.76000,0.11600
 0.00121000000,-1.60000,0.11600
 0.00122000000,-1.60000,0.10800
 0.00123000000,-1.68000,0.10800
 0.00124000000,-1.68000,0.11600
 0.00125000000,-1.76000,0.10800
 0.00126000000,-1.60000,0.11600
 0.00127000000,-1.68000,0.10800
 0.00128000000,-1.68000,0.10800
 0.00129000000,-1.60000,0.11600
 0.00130000000,-1.76000,0.10800
 0.00131000000,-1.68000,0.10000
 0.00132000000,-1.84000,0.10800
 0.00133000000,-1.68000,0.10800
 0.00134000000,-1.84000,0.10800
 0.00135000000,-1.68000,0.10800
 0.00136000000,-1.84000,0.10800
 0.00137000000,-1.84000,0.10800
 0.00138000000,-1.76000,0.10000
 0.00139000000,-1.76000,0.10800
 0.00140000000,-1.84000,0.10800
 0.00141000000,-1.92000,0.10800
 0.00142000000,-1.92000,0.10800
 0.00143000000,-1.76000,0.10800
 0.00144000000,-1.84000,0.10000
 0.00145000000,-1.84000,0.10000
 0.00146000000,-1.84000,0.10000
 0.00147000000,-1.84000,0.10800
 0.00148000000,-1.76000,0.10800
 0.00149000000,-2.00000,0.10000
 0.00150000000,-2.00000,0.10800
 0.00151000000,-2.00000,0.10000
 0.00152000000,-1.92000,0.09200
 0.00153000000,-1.92000,0.10800
 0.00154000000,-1.92000,0.10000
 0.00155000000,-1.92000,0.10000
 0.00156000000,-2.00000,0.10000
 0.00157000000,-2.08000,0.10000
 0.00158000000,-2.00000,0.10000
 0.00159000000,-2.08000,0.10000
 0.00160000000,-1.92000,0.10000
 0.00161000000,-2.08000,0.09200
 0.00162000000,-2.00000,0.10000
 0.00163000000,-2.00000,0.07600
 0.00164000000,-2.08000,0.09200
 0.00165000000,-2.00000,0.09200
 0.00166000000,-2.16000,0.09200
 0.00167000000,-2.08000,0.10000
 0.00168000000,-2.16000,0.08400
 0.00169000000,-2.08000,0.10000
 0.00170000000,-2.16000,0.10000
 0.00171000000,-2.00000,0.08400
 0.00172000000,-2.16000,0.09200
 0.00173000000,-2.16000,0.09200
 0.00174000000,-2.16000,0.09200
 0.00175000000,-2.16000,0.09200
 0.00176000000,-2.16000,0.09200
 0.00177000000,-2.16000,0.08400
 0.00178000000,-2.32000,0.09200
 0.00179000000,-2.08000,0.09200
 0.00180000000,-2.24000,0.09200
 0.00181000000,-2.24000,0.09200
 0.00182000000,-2.24000,0.08400
 0.00183000000,-2.16000,0.09200
 0.00184000000,-2.24000,0.08400
 0.00185000000,-2.16000,0.08400
 0.00186000000,-2.24000,0.08400
 0.00187000000,-2.24000,0.09200
 0.00188000000,-2.24000,0.09200
 0.00189000000,-2.24000,0.09200
 0.00190000000,-2.32000,0.07600
 0.00191000000,-2.32000,0.08400
 0.00192000000,-2.32000,0.07600
 0.00193000000,-2.32000,0.08400
 0.00194000000,-2.32000,0.08400
 0.00195000000,-2.40000,0.08400
 0.00196000000,-2.24000,0.08400
 0.00197000000,-2.40000,0.08400
 0.00198000000,-2.40000,0.08400
 0.00199000000,-2.32000,0.07600
 0.00200000000,-2.40000,0.08400
 0.00201000000,-2.48000,0.07600
 0.00202000000,-2.56000,0.08400
 0.00203000000,-2.40000,0.08400
 0.00204000000,-2.48000,0.07600
 0.00205000000,-2.40000,0.07600
 0.00206000000,-2.48000,0.07600
 0.00207000000,-2.48000,0.07600
 0.00208000000,-2.40000,0.07600
 0.00209000000,-2.48000,0.07600
 0.00210000000,-2.56000,0.08400
 0.00211000000,-2.48000,0.07600
 0.00212000000,-2.48000,0.08400
 0.00213000000,-2.40000,0.10000
 0.00214000000,-2.48000,0.07600
 0.00215000000,-2.56000,0.07600
 0.00216000000,-2.48000,0.07600
 0.00217000000,-2.48000,0.07600
 0.00218000000,-2.56000,0.07600
 0.00219000000,-2.48000,0.06800
 0.00220000000,-2.56000,0.06800
 0.00221000000,-2.64000,0.06800
 0.00222000000,-2.64000,0.07600
 0.00223000000,-2.64000,0.06800
 0.00224000000,-2.64000,0.06800
 0.00225000000,-2.64000,0.06800
 0.00226000000,-2.64000,0.06800
 0.00227000000,-2.64000,0.06800
 0.00228000000,-2.64000,0.06800
 0.00229000000,-2.64000,0.06800
 0.00230000000,-2.72000,0.06800
 0.00231000000,-2.72000,0.06800
 0.00232000000,-2.72000,0.06800
 0.00233000000,-2.72000,0.06800
 0.00234000000,-2.80000,0.06000
 0.00235000000,-2.72000,0.06000
 0.00236000000,-2.64000,0.06000
 0.00237000000,-2.72000,0.06000
 0.00238000000,-2.72000,0.08400
 0.00239000000,-2.80000,0.06000
 0.00240000000,-2.72000,0.06000
 0.00241000000,-2.64000,0.06800
 0.00242000000,-2.72000,0.05200
 0.00243000000,-2.72000,0.06000
 0.00244000000,-2.80000,0.05200
 0.00245000000,-2.72000,0.06000
 0.00246000000,-2.80000,0.05200
 0.00247000000,-2.88000,0.06000
 0.00248000000,-2.80000,0.06000
 0.00249000000,-2.80000,0.06000
 0.00250000000,-2.88000,0.06000
 0.00251000000,-2.80000,0.06000
 0.00252000000,-2.80000,0.05200
 0.00253000000,-2.88000,0.05200
 0.00254000000,-2.96000,0.06000
 0.00255000000,-2.96000,0.05200
 0.00256000000,-2.88000,0.05200
 0.00257000000,-2.88000,0.05200
 0.00258000000,-2.96000,0.06000
 0.00259000000,-2.88000,0.05200
 0.00260000000,-2.96000,0.05200
 0.00261000000,-2.88000,0.05200
 0.00262000000,-2.96000,0.05200
 0.00263000000,-2.96000,0.06000
 0.00264000000,-2.96000,0.04400
 0.00265000000,-3.04000,0.04400
 0.00266000000,-3.04000,0.04400
 0.00267000000,-3.04000,0.04400
 0.00268000000,-3.04000,0.04400
 0.00269000000,-3.04000,0.05200
 0.00270000000,-3.04000,0.04400
 0.00271000000,-3.04000,0.03600
 0.00272000000,-3.04000,0.04400
 0.00273000000,-3.04000,0.04400
 0.00274000000,-3.12000,0.04400
 0.00275000000,-3.04000,0.04400
 0.00276000000,-3.04000,0.03600
 0.00277000000,-3.12000,0.03600
 0.00278000000,-3.12000,0.03600
 0.00279000000,-2.96000,0.04400
 0.00280000000,-3.12000,0.03600
 0.00281000000,-3.04000,0.04400
 0.00282000000,-3.12000,0.03600
 0.00283000000,-3.12000,0.03600
 0.00284000000,-3.12000,0.04400
 0.00285000000,-3.12000,0.03600
 0.00286000000,-3.12000,0.03600
 0.00287000000,-3.04000,0.04400
 0.00288000000,-3.12000,-0.00400
 0.00289000000,-3.12000,0.02800
 0.00290000000,-3.20000,0.02800
 0.00291000000,-3.20000,0.03600
 0.00292000000,-3.20000,0.02800
 0.00293000000,-3.20000,0.03600
 0.00294000000,-3.28000,0.03600
 0.00295000000,-3.20000,0.02800
 0.00296000000,-3.12000,0.02800
 0.00297000000,-3.12000,0.02000
 0.00298000000,-3.20000,0.02800
 0.00299000000,-3.12000,0.02800
 0.00300000000,-3.28000,0.02800
 0.00301000000,-3.20000,0.02000
 0.00302000000,-3.12000,0.02000
 0.00303000000,-3.28000,0.02800
 0.00304000000,-3.12000,0.02000
 0.00305000000,-3.28000,0.02800
 0.00306000000,-3.28000,0.02000
 0.00307000000,-3.20000,0.02000
 0.00308000000,-3.28000,0.02800
 0.00309000000,-3.20000,0.02000
 0.00310000000,-3.20000,0.02000
 0.00311000000,-3.28000,0.02000
 0.00312000000,-3.20000,0.02000
 0.00313000000,-3.28000,-0.02800
 0.00314000000,-3.28000,0.02000
 0.00315000000,-3.28000,0.01200
 0.00316000000,-3.28000,0.02000
 0.00317000000,-3.28000,0.01200
 0.00318000000,-3.36000,0.01200
 0.00319000000,-3.36000,0.01200
 0.00320000000,-3.20000,0.02000
 0.00321000000,-3.28000,0.02000
 0.00322000000,-3.36000,0.02000
 0.00323000000,-3.28000,0.02000
 0.00324000000,-3.36000,0.01200
 0.00325000000,-3.28000,0.02000
 0.00326000000,-3.20000,0.01200
 0.00327000000,-3.28000,0.00400
 0.00328000000,-3.28000,0.00400
 0.00329000000,-3.28000,0.01200
 0.00330000000,-3.36000,0.00400
 0.00331000000,-3.36000,0.00400
 0.00332000000,-3.36000,0.01200
 0.00333000000,-3.28000,0.00400
 0.00334000000,-3.28000,0.00400
 0.00335000000,-3.36000,0.01200
 0.00336000000,-3.28000,0.01200
 0.00337000000,-3.28000,0.00400
 0.00338000000,-3.36000,-0.03600
 0.00339000000,-3.28000,-0.00400
 0.00340000000,-3.36000,0.00400
 0.00341000000,-3.36000,0.00400
 0.00342000000,-3.28000,0.00400
 0.00343000000,-3.28000,0.00400
 0.00344000000,-3.36000,-0.00400
 0.00345000000,-3.28000,-0.00400
 0.00346000000,-3.36000,0.00400
 0.00347000000,-3.20000,-0.00400
 0.00348000000,-3.36000,-0.00400
 0.00349000000,-3.36000,-0.00400
 0.00350000000,-3.28000,0.00400
 0.00351000000,-3.28000,-0.00400
 0.00352000000,-3.20000,-0.00400
 0.00353000000,-3.36000,-0.00400
 0.00354000000,-3.36000,-0.00400
 0.00355000000,-3.36000,-0.00400
 0.00356000000,-3.36000,-0.00400
 0.00357000000,-3.36000,-0.00400
 0.00358000000,-3.36000,-0.00400
 0.00359000000,-3.28000,0.00400
 0.00360000000,-3.36000,-0.01200
 0.00361000000,-3.28000,-0.00400
 0.00362000000,-3.36000,-0.00400
 0.00363000000,-3.36000,-0.01200
 0.00364000000,-3.28000,-0.01200
 0.00365000000,-3.28000,-0.01200
 0.00366000000,-3.28000,-0.01200
 0.00367000000,-3.28000,-0.01200
 0.00368000000,-3.36000,-0.01200
 0.00369000000,-3.28000,-0.00400
 0.00370000000,-3.28000,-0.02000
 0.00371000000,-3.28000,-0.01200
 0.00372000000,-3.36000,-0.02000
 0.00373000000,-3.20000,-0.02000
 0.00374000000,-3.36000,-0.01200
 0.00375000000,-3.36000,-0.01200
 0.00376000000,-3.28000,-0.01200
 0.00377000000,-3.28000,-0.01200
 0.00378000000,-3.36000,-0.02000
 0.00379000000,-3.36000,-0.02000
 0.00380000000,-3.36000,-0.02800
 0.00381000000,-3.20000,-0.02000
 0.00382000000,-3.36000,-0.02000
 0.00383000000,-3.20000,-0.02800
 0.00384000000,-3.28000,-0.02000
 0.00385000000,-3.20000,-0.02800
 0.00386000000,-3.20000,-0.02000
 0.00387000000,-3.28000,-0.02000
 0.00388000000,-3.28000,-0.01200
 0.00389000000,-3.36000,-0.02000
 0.00390000000,-3.36000,-0.02800
 0.00391000000,-3.28000,-0.02000
 0.00392000000,-3.20000,-0.02000
 0.00393000000,-3.28000,-0.02000
 0.00394000000,-3.20000,-0.01200
 0.00395000000,-3.36000,-0.02800
 0.00396000000,-3.36000,-0.02800
 0.00397000000,-3.28000,-0.02800
 0.00398000000,-3.20000,-0.02800
 0.00399000000,-3.28000,-0.02800
 0.00400000000,-3.20000,-0.02000
 0.00401000000,-3.36000,-0.02800
 0.00402000000,-3.28000,-0.02800
 0.00403000000,-3.28000,-0.02800
 0.00404000000,-3.36000,-0.02800
 0.00405000000,-3.36000,-0.03600
 0.00406000000,-3.28000,-0.02800
 0.00407000000,-3.36000,-0.02800
 0.00408000000,-3.28000,-0.03600
 0.00409000000,-3.20000,-0.03600
 0.00410000000,-3.36000,-0.03600
 0.00411000000,-3.36000,-0.04400
 0.00412000000,-3.36000,-0.02800
 0.00413000000,-3.28000,-0.03600
 0.00414000000,-3.36000,-0.03600
 0.00415000000,-3.36000,-0.03600
 0.00416000000,-3.28000,-0.03600
 0.00417000000,-3.28000,-0.04400
 0.00418000000,-3.36000,-0.03600
 0.00419000000,-3.20000,-0.04400
 0.00420000000,-3.36000,-0.03600
 0.00421000000,-3.28000,-0.02800
 0.00422000000,-3.36000,-0.03600
 0.00423000000,-3.20000,-0.04400
 0.00424000000,-3.28000,-0.04400
 0.00425000000,-3.36000,-0.03600
 0.00426000000,-3.20000,-0.03600
 0.00427000000,-3.28000,-0.04400
 0.00428000000,-3.36000,-0.04400
 0.00429000000,-3.28000,-0.03600
 0.00430000000,-3.28000,-0.03600
 0.00431000000,-3.28000,-0.04400
 0.00432000000,-3.28000,-0.03600
 0.00433000000,-3.28000,-0.03600
 0.00434000000,-3.36000,-0.04400
 0.00435000000,-3.28000,-0.04400
 0.00436000000,-3.28000,-0.04400
 0.00437000000,-3.28000,-0.04400
 0.00438000000,-3.28000,-0.03600
 0.00439000000,-3.28000,-0.04400
 0.00440000000,-3.28000,-0.04400
 0.00441000000,-3.28000,-0.05200
 0.00442000000,-3.28000,-0.04400
 0.00443000000,-3.28000,-0.05200
 0.00444000000,-3.28000,-0.05200
 0.00445000000,-3.28000,-0.04400
 0.00446000000,-3.28000,-0.04400
 0.00447000000,-3.28000,-0.05200
 0.00448000000,-3.28000,-0.05200
 0.00449000000,-3.28000,-0.04400
 0.00450000000,-3.20000,-0.05200
 0.00451000000,-3.28000,-0.04400
 0.00452000000,-3.28000,-0.05200
 0.00453000000,-3.20000,-0.06000
 0.00454000000,-3.20000,-0.04400
 0.00455000000,-3.28000,-0.05200
 0.00456000000,-3.28000,-0.04400
 0.00457000000,-3.28000,-0.05200
 0.00458000000,-3.36000,-0.05200
 0.00459000000,-3.20000,-0.06000
 0.00460000000,-3.28000,-0.04400
 0.00461000000,-3.28000,-0.04400
 0.00462000000,-3.36000,-0.06000
 0.00463000000,-3.28000,-0.06000
 0.00464000000,-3.28000,-0.06000
 0.00465000000,-3.28000,-0.05200
 0.00466000000,-3.28000,-0.05200
 0.00467000000,-3.28000,-0.05200
 0.00468000000,-3.28000,-0.06000
 0.00469000000,-3.28000,-0.05200
 0.00470000000,-3.20000,-0.06000
 0.00471000000,-3.36000,-0.06800
 0.00472000000,-3.28000,-0.06000
 0.00473000000,-3.28000,-0.06000
 0.00474000000,-3.28000,-0.06800
 0.00475000000,-3.28000,-0.06000
 0.00476000000,-3.28000,-0.06800
 0.00477000000,-3.36000,-0.05200
 0.00478000000,-3.36000,-0.06800
 0.00479000000,-3.28000,-0.05200
 0.00480000000,-3.28000,-0.06000
 0.00481000000,-3.28000,-0.06000
 0.00482000000,-3.28000,-0.06800
 0.00483000000,-3.20000,-0.06800
 0.00484000000,-3.20000,-0.06800
 0.00485000000,-3.20000,-0.05200
 0.00486000000,-3.28000,-0.06800
 0.00487000000,-3.28000,-0.06800
 0.00488000000,-3.28000,-0.05200
 0.00489000000,-3.36000,-0.06800
 0.00490000000,-3.28000,-0.07600
 0.00491000000,-3.28000,-0.06800
 0.00492000000,-3.28000,-0.06800
 0.00493000000,-3.28000,-0.06800
 0.00494000000,-3.20000,-0.06000
 0.00495000000,-3.28000,-0.06000
 0.00496000000,-3.28000,-0.06800
 0.00497000000,-3.28000,-0.06800
 0.00498000000,-3.28000,-0.06800
 0.00499000000,-3.28000,-0.06800
 0.00500000000,-3.20000,-0.07600
 0.00501000000,-3.28000,-0.06800
 0.00502000000,-3.28000,-0.07600
 0.00503000000,-3.28000,-0.06800
 0.00504000000,-3.28000,-0.08400
 0.00505000000,-3.20000,-0.06800
 0.00506000000,-3.28000,-0.07600
 0.00507000000,-3.28000,-0.07600
 0.00508000000,-3.28000,-0.07600
 0.00509000000,-3.20000,-0.06800
 0.00510000000,-3.12000,-0.08400
 0.00511000000,-3.28000,-0.07600
 0.00512000000,-3.20000,-0.07600
 0.00513000000,-3.28000,-0.06800
 0.00514000000,-3.20000,-0.08400
 0.00515000000,-3.20000,-0.07600
 0.00516000000,-3.28000,-0.07600
 0.00517000000,-3.28000,-0.07600
 0.00518000000,-3.28000,-0.08400
 0.00519000000,-3.28000,-0.08400
 0.00520000000,-3.28000,-0.08400
 0.00521000000,-3.20000,-0.07600
 0.00522000000,-3.20000,-0.08400
 0.00523000000,-3.20000,-0.08400
 0.00524000000,-3.36000,-0.08400
 0.00525000000,-3.28000,-0.08400
 0.00526000000,-3.20000,-0.07600
 0.00527000000,-3.28000,-0.08400
 0.00528000000,-3.28000,-0.08400
 0.00529000000,-3.20000,-0.07600
 0.00530000000,-3.28000,-0.07600
 0.00531000000,-3.28000,-0.08400
 0.00532000000,-3.28000,-0.08400
 0.00533000000,-3.28000,-0.08400
 0.00534000000,-3.20000,-0.08400
 0.00535000000,-3.28000,-0.07600
 0.00536000000,-3.20000,-0.09200
 0.00537000000,-3.20000,-0.08400
 0.00538000000,-3.20000,-0.10000
 0.00539000000,-3.20000,-0.09200
 0.00540000000,-3.28000,-0.08400
 0.00541000000,-3.20000,-0.08400
 0.00542000000,-3.28000,-0.08400
 0.00543000000,-3.36000,-0.09200
 0.00544000000,-3.28000,-0.08400
 0.00545000000,-3.28000,-0.10000
 0.00546000000,-3.12000,-0.09200
 0.00547000000,-3.28000,-0.08400
 0.00548000000,-3.28000,-0.08400
 0.00549000000,-3.36000,-0.10000
 0.00550000000,-3.28000,-0.09200
 0.00551000000,-3.28000,-0.09200
 0.00552000000,-3.20000,-0.10000
 0.00553000000,-3.28000,-0.09200
 0.00554000000,-3.20000,-0.10000
 0.00555000000,-3.20000,-0.10000
 0.00556000000,-3.12000,-0.10000
 0.00557000000,-3.20000,-0.09200
 0.00558000000,-3.20000,-0.10000
 0.00559000000,-3.28000,-0.09200
 0.00560000000,-3.20000,-0.10800
 0.00561000000,-3.20000,-0.10000
 0.00562000000,-3.20000,-0.10000
 0.00563000000,-3.12000,-0.07600
 0.00564000000,-3.20000,-0.10000
 0.00565000000,-3.20000,-0.10000
 0.00566000000,-3.20000,-0.10000
 0.00567000000,-3.20000,-0.10800
 0.00568000000,-3.20000,-0.09200
 0.00569000000,-3.20000,-0.09200
 0.00570000000,-3.04000,-0.10000
 0.00571000000,-3.12000,-0.10800
 0.00572000000,-3.20000,-0.10000
 0.00573000000,-3.12000,-0.10800
 0.00574000000,-3.20000,-0.10800
 0.00575000000,-3.20000,-0.10800
 0.00576000000,-3.12000,-0.10800
 0.00577000000,-3.20000,-0.10000
 0.00578000000,-3.20000,-0.10800
 0.00579000000,-3.20000,-0.10800
 0.00580000000,-3.12000,-0.10800
 0.00581000000,-3.20000,-0.10800
 0.00582000000,-3.12000,-0.10000
 0.00583000000,-3.12000,-0.10800
 0.00584000000,-3.20000,-0.10800
 0.00585000000,-3.12000,-0.10800
 0.00586000000,-3.12000,-0.11600
 0.00587000000,-3.20000,-0.10800
 0.00588000000,-3.04000,-0.11600
 0.00589000000,-3.12000,-0.10800
 0.00590000000,-3.12000,-0.10000
 0.00591000000,-3.12000,-0.12400
 0.00592000000,-3.04000,-0.10800
 0.00593000000,-3.12000,-0.11600
 0.00594000000,-3.04000,-0.11600
 0.00595000000,-3.04000,-0.12400
 0.00596000000,-3.04000,-0.10800
 0.00597000000,-3.12000,-0.11600
 0.00598000000,-3.12000,-0.11600
 0.00599000000,-3.12000,-0.10800
 0.00600000000,-3.04000,-0.11600
 0.00601000000,-3.04000,-0.12400
 0.00602000000,-2.96000,-0.12400
 0.00603000000,-3.12000,-0.11600
 0.00604000000,-3.04000,-0.12400
 0.00605000000,-3.04000,-0.12400
 0.00606000000,-3.04000,-0.12400
 0.00607000000,-3.12000,-0.11600
 0.00608000000,-3.04000,-0.11600
 0.00609000000,-3.04000,-0.12400
